[
  {
    "name": "rel(rel8/rel16/rel32/rel64)",
    "description": "Относительный адрес в пределах сегмента кода, содержащего данную команду, используемый для операндов с размером операнда 8/16/32/64 бита. Задаёт смещение от -128 до 127 байт относительно адреса после конца инструкции."
  },
  {
    "name": "ptr16:16/ptr16:32/ptr16:64",
    "description": "Непосредственное значение 20-, 48- и 80-разрядного адреса памяти, задаваемое прямо в команде, дальний указатель (обычно на адрес в сегменте кода, отличном от текущего), используется при установленном атрибуте размера операнда 16, 32 или 64 бита (первая часть указателя является селектором или значением сегментного регистра кода, вторая — смещением в целевом сегменте кода)."
  },
  {
    "name": "reg(r8/r16/r32/r64)",
    "description": "Операнд в одном из регистров размером в байт/слово/двойное слово/учетверенное слово."
  },
  {
    "name": "imm(imm8/imm16/imm32/imm64)",
    "description": "Непосредственный однобайтовый/двухбайтовый/четырехбайтовый/восьмибайтовый операнд команды."
  },
  {
    "name": "mem(m8/m16/m32/m64/m128)",
    "description": "Операнд в памяти размером 8/16/32/64/128 бит."
  },
  {
    "name": "m16&16/m16&32/m32&32",
    "description": "Адрес ячейки памяти, состоящей из нескольких элементов, чьи размеры задаются справа и слева от амперсанда. Доступны все режимы адресации памяти."
  },
  {
    "name": "m16:16/m16:32/m16:64",
    "description": "Операнд в памяти, содержащий дальний указатель, находящийся по данному адресу."
  },
  {
    "name": "moffs8/moffs16/moffs32/moffs64",
    "description": "Переменная (смещение в памяти), типа байт/слово/двойное слово/учетверенное слово, требующая для выполнения некоторых вариантов команды mov (байт mod r/m не используется, адрес задается простым смещением относительно базы сегмента)."
  },
  {
    "name": "port8",
    "description": "8-разрядный адрес в пространстве ввода/вывода."
  },
  {
    "name": "m32fp/m64fp/m80fp",
    "description": "Адрес в памяти операнда с плавающей точкой одинарной/двойной/расширенной точности."
  },
  {
    "name": "ST(i)",
    "description": "i-тый элемент стека сопроцессора (i=0…7)."
  },
  {
    "name": "mmx",
    "description": "Операнд в одном из регистров целочисленного расширения MMX."
  },
  {
    "name": "xmm",
    "description": "Операнд в одном из 128-битный XMM-регистров расширения MMX с плавающей точкой."
  },
  {
    "name": "sreg",
    "description": "Сегментный регистр. Номера сегментных регистров в поле Reg байта ModR/M: ES=0, CS=1, SS=2, DS=3, FS=4, GS=5."
  }

]